DZ1_Quartus/simulation/qsim/DZ1_Quartus.msim.vcd
$comment
	File created using the following command:
		vcd file DZ1_Quartus.msim.vcd -direction
$end
$date
	Fri Jun 07 17:17:42 2024
$end
$version
	ModelSim Version 10.5b
$end
$timescale
	1ps
$end

$scope module main_prom_vlg_vec_tst $end
$var reg 1 ! CLK $end
$var wire 1 " a $end
$var wire 1 # b $end
$var wire 1 $ c $end
$var wire 1 % d $end
$var wire 1 & e $end
$var wire 1 ' f $end
$var wire 1 ( g $end

$scope module i1 $end
$var wire 1 ) gnd $end
$var wire 1 * vcc $end
$var wire 1 + unknown $end
$var tri1 1 , devclrn $end
$var tri1 1 - devpor $end
$var tri1 1 . devoe $end
$var wire 1 / a~output_o $end
$var wire 1 0 b~output_o $end
$var wire 1 1 c~output_o $end
$var wire 1 2 d~output_o $end
$var wire 1 3 e~output_o $end
$var wire 1 4 f~output_o $end
$var wire 1 5 g~output_o $end
$var wire 1 6 CLK~input_o $end
$var wire 1 7 inst4|out_pos[2]~2_combout $end
$var wire 1 8 inst4|out_pos~1_combout $end
$var wire 1 9 inst4|out_pos~0_combout $end
$var wire 1 : inst|inst|inst15~combout $end
$var wire 1 ; inst|inst2|inst7~combout $end
$var wire 1 < inst|inst3|inst44~0_combout $end
$var wire 1 = inst|inst5|inst44~0_combout $end
$var wire 1 > inst4|out_pos [0] $end
$var wire 1 ? inst4|out_pos [1] $end
$var wire 1 @ inst4|out_pos [2] $end
$upscope $end
$upscope $end
$enddefinitions $end
#0
$dumpvars
0!
1"
1#
0$
1%
1&
0'
1(
0)
1*
x+
1,
1-
1.
1/
10
01
12
13
04
15
06
17
08
09
0:
1;
0<
1=
0@
0?
0>
$end
#10000
1!
16
#20000
0!
06
1@
0=
0;
19
07
11
05
14
1'
0(
1$
#30000
1!
16
#40000
0!
06
0@
1?
1<
17
02
0%
#50000
1!
16
#60000
0!
06
1@
1=
1:
09
18
07
03
0/
04
0'
0"
0&
#70000
1!
16
#80000
0!
06
0@
1>
0?
17
#90000
1!
16
#100000
0!
06
1@
0<
0:
1;
08
07
01
15
13
1/
12
1%
1"
1&
1(
0$
#110000
1!
16
#120000
0!
06
0@
0>
17
#130000
1!
16
#140000
0!
06
1@
0=
0;
19
07
11
05
14
1'
0(
1$
#150000
1!
16
#160000
0!
06
0@
1?
1<
17
02
0%
#170000
1!
16
#180000
0!
06
1@
1=
1:
09
18
07
03
0/
04
0'
0"
0&
#190000
1!
16
#200000
0!
06
0@
1>
0?
17
#210000
1!
16
#220000
0!
06
1@
0<
0:
1;
08
07
01
15
13
1/
12
1%
1"
1&
1(
0$
#230000
1!
16
#240000
0!
06
0@
0>
17
#250000
1!
16
#260000
0!
06
1@
0=
0;
19
07
11
05
14
1'
0(
1$
#270000
1!
16
#280000
0!
06
0@
1?
1<
17
02
0%
#290000
1!
16
#300000
0!
06
1@
1=
1:
09
18
07
03
0/
04
0'
0"
0&
#310000
1!
16
#320000
0!
06
0@
1>
0?
17
#330000
1!
16
#340000
0!
06
1@
0<
0:
1;
08
07
01
15
13
1/
12
1%
1"
1&
1(
0$
#350000
1!
16
#360000
0!
06
0@
0>
17
#370000
1!
16
#380000
0!
06
1@
0=
0;
19
07
11
05
14
1'
0(
1$
#390000
1!
16
#400000
0!
06
0@
1?
1<
17
02
0%
#410000
1!
16
#420000
0!
06
1@
1=
1:
09
18
07
03
0/
04
0'
0"
0&
#430000
1!
16
#440000
0!
06
0@
1>
0?
17
#450000
1!
16
#460000
0!
06
1@
0<
0:
1;
08
07
01
15
13
1/
12
1%
1"
1&
1(
0$
#470000
1!
16
#480000
0!
06
0@
0>
17
#490000
1!
16
#500000
0!
06
1@
0=
0;
19
07
11
05
14
1'
0(
1$
#510000
1!
16
#520000
0!
06
0@
1?
1<
17
02
0%
#530000
1!
16
#540000
0!
06
1@
1=
1:
09
18
07
03
0/
04
0'
0"
0&
#550000
1!
16
#560000
0!
06
0@
1>
0?
17
#570000
1!
16
#580000
0!
06
1@
0<
0:
1;
08
07
01
15
13
1/
12
1%
1"
1&
1(
0$
#590000
1!
16
#600000
0!
06
0@
0>
17
#610000
1!
16
#620000
0!
06
1@
0=
0;
19
07
11
05
14
1'
0(
1$
#630000
1!
16
#640000
0!
06
0@
1?
1<
17
02
0%
#650000
1!
16
#660000
0!
06
1@
1=
1:
09
18
07
03
0/
04
0'
0"
0&
#670000
1!
16
#680000
0!
06
0@
1>
0?
17
#690000
1!
16
#700000
0!
06
1@
0<
0:
1;
08
07
01
15
13
1/
12
1%
1"
1&
1(
0$
#710000
1!
16
#720000
0!
06
0@
0>
17
#730000
1!
16
#740000
0!
06
1@
0=
0;
19
07
11
05
14
1'
0(
1$
#750000
1!
16
#760000
0!
06
0@
1?
1<
17
02
0%
#770000
1!
16
#780000
0!
06
1@
1=
1:
09
18
07
03
0/
04
0'
0"
0&
#790000
1!
16
#800000
0!
06
0@
1>
0?
17
#810000
1!
16
#820000
0!
06
1@
0<
0:
1;
08
07
01
15
13
1/
12
1%
1"
1&
1(
0$
#830000
1!
16
#840000
0!
06
0@
0>
17
#850000
1!
16
#860000
0!
06
1@
0=
0;
19
07
11
05
14
1'
0(
1$
#870000
1!
16
#880000
0!
06
0@
1?
1<
17
02
0%
#890000
1!
16
#900000
0!
06
1@
1=
1:
09
18
07
03
0/
04
0'
0"
0&
#910000
1!
16
#920000
0!
06
0@
1>
0?
17
#930000
1!
16
#940000
0!
06
1@
0<
0:
1;
08
07
01
15
13
1/
12
1%
1"
1&
1(
0$
#950000
1!
16
#960000
0!
06
0@
0>
17
#970000
1!
16
#980000
0!
06
1@
0=
0;
19
07
11
05
14
1'
0(
1$
#990000
1!
16
